…
``` r
q_4a <- polls_us_election_2016 |> 
  filter(!state == "U.S." & pollster == "Ipsos" ) |> 
  group_by(state) |> 
  slice_max(order_by = enddate, with_ties = FALSE) |> 
  ungroup() |> 
  select(state, adjpoll_clinton, adjpoll_trump)
q_4a
```

    # A tibble: 47 × 3
       state       adjpoll_clinton adjpoll_trump
       <fct>                 <dbl>         <dbl>
     1 Alabama                37.5          53.7
     2 Arizona                41.4          46.2
     3 Arkansas               37.2          53.3
     4 California             58.3          31.0
     5 Colorado               46.0          40.7
     6 Connecticut            48.8          38.9
     7 Delaware               51.1          35.8
     8 Florida                47.6          46.5
     9 Georgia                41.6          46.8
    10 Hawaii                 46.2          28.0
    # ℹ 37 more rows
…
